{
    // Use IntelliSense to learn about possible attributes.
    // Hover to view descriptions of existing attributes.
    // For more information, visit: https://go.microsoft.com/fwlink/?linkid=830387
    "version": "0.2.0",
    "configurations": [

        {
            "type": "lldb",
            "request": "launch",
            "name": "Debug executable 'bevy-snake'",
            "cargo": {
                "args": [
                    "build",
                    "--bin=bevy-snake",
                    "--package=bevy-snake"
                ],
                "filter": {
                    "name": "bevy-snake",
                    "kind": "bin"
                }
            },
            "args": [],
            "cwd": "${workspaceFolder}"
        },
        {
            "type": "lldb",
            "request": "launch",
            "name": "Debug unit tests in executable 'bevy-snake'",
            "cargo": {
                "args": [
                    "test",
                    "--no-run",
                    "--bin=bevy-snake",
                    "--package=bevy-snake"
                ],
                "filter": {
                    "name": "bevy-snake",
                    "kind": "bin"
                }
            },
            "args": [],
            "cwd": "${workspaceFolder}"
        }
    ]
}