[2022-07-16 22:36:47.561] [sharedprocess] [info] Starting worker process with pid 29327 (type: fileWatcher, window: 1).
[2022-07-16 22:45:00.782] [sharedprocess] [info] Getting Manifest... rust-lang.rust
[2022-07-16 22:45:00.923] [sharedprocess] [info] Installing extension: rust-lang.rust
[2022-07-16 22:45:01.698] [sharedprocess] [info] Downloaded extension: rust-lang.rust /home/alexnomad/.config/VSCodium/CachedExtensionVSIXs/rust-lang.rust-0.7.8
[2022-07-16 22:45:01.771] [sharedprocess] [info] Extracted extension to /home/alexnomad/.vscode-oss/extensions/.2edf73d8-e9d7-451d-a466-5f3526540ef4: rust-lang.rust
[2022-07-16 22:45:01.778] [sharedprocess] [info] Renamed to /home/alexnomad/.vscode-oss/extensions/rust-lang.rust-0.7.8
[2022-07-16 22:45:01.779] [sharedprocess] [info] Extracting completed. rust-lang.rust
[2022-07-16 22:45:01.780] [sharedprocess] [info] Extension installed successfully: rust-lang.rust
[2022-07-16 22:45:08.270] [sharedprocess] [info] Worker process with pid 29327 terminated normally (type: fileWatcher, window: 1).
[2022-07-16 22:45:09.277] [sharedprocess] [info] Starting worker process with pid 35536 (type: fileWatcher, window: 1).
[2022-07-16 22:46:04.142] [sharedprocess] [info] Worker process with pid 35536 terminated normally (type: fileWatcher, window: 1).
[2022-07-16 22:46:05.218] [sharedprocess] [info] Starting worker process with pid 42003 (type: fileWatcher, window: 1).
[2022-07-16 22:49:06.943] [sharedprocess] [info] Getting Manifest... cweijan.vscode-mysql-client2
[2022-07-16 22:49:07.067] [sharedprocess] [info] Installing extension: cweijan.vscode-mysql-client2
[2022-07-16 22:49:09.121] [sharedprocess] [info] Downloaded extension: cweijan.vscode-mysql-client2 /home/alexnomad/.config/VSCodium/CachedExtensionVSIXs/cweijan.vscode-mysql-client2-5.5.5
[2022-07-16 22:49:09.353] [sharedprocess] [info] Extracted extension to /home/alexnomad/.vscode-oss/extensions/.4328f27b-2d39-480c-b0f1-bfdc31101d21: cweijan.vscode-mysql-client2
[2022-07-16 22:49:09.361] [sharedprocess] [info] Renamed to /home/alexnomad/.vscode-oss/extensions/cweijan.vscode-mysql-client2-5.5.5
[2022-07-16 22:49:09.364] [sharedprocess] [info] Extracting completed. cweijan.vscode-mysql-client2
[2022-07-16 22:49:09.365] [sharedprocess] [info] Extension installed successfully: cweijan.vscode-mysql-client2
[2022-07-16 22:49:16.621] [sharedprocess] [info] Getting Manifest... cweijan.vscode-database-client2
[2022-07-16 22:49:16.687] [sharedprocess] [info] Installing extension: cweijan.vscode-database-client2
[2022-07-16 22:49:20.115] [sharedprocess] [info] Downloaded extension: cweijan.vscode-database-client2 /home/alexnomad/.config/VSCodium/CachedExtensionVSIXs/cweijan.vscode-database-client2-5.3.7
[2022-07-16 22:49:20.280] [sharedprocess] [info] Extracted extension to /home/alexnomad/.vscode-oss/extensions/.dd87d3ca-9472-41fc-a2fd-99b3c687ee7a: cweijan.vscode-database-client2
[2022-07-16 22:49:20.287] [sharedprocess] [info] Renamed to /home/alexnomad/.vscode-oss/extensions/cweijan.vscode-database-client2-5.3.7
[2022-07-16 22:49:20.289] [sharedprocess] [info] Extracting completed. cweijan.vscode-database-client2
[2022-07-16 22:49:20.290] [sharedprocess] [info] Extension installed successfully: cweijan.vscode-database-client2
[2022-07-16 22:54:44.468] [sharedprocess] [info] Uninstalling extension: cweijan.vscode-mysql-client2
[2022-07-16 22:54:44.589] [sharedprocess] [info] Detected extension removed from another source cweijan.vscode-mysql-client2
[2022-07-16 22:54:45.043] [sharedprocess] [info] Successfully uninstalled extension: cweijan.vscode-mysql-client2
[2022-07-16 22:54:45.396] [sharedprocess] [info] Worker process with pid 42003 terminated normally (type: fileWatcher, window: 1).
[2022-07-16 22:54:46.378] [sharedprocess] [info] Starting worker process with pid 43748 (type: fileWatcher, window: 1).
[2022-07-16 22:56:07.519] [sharedprocess] [info] Uninstalling extension: cweijan.vscode-database-client2
[2022-07-16 22:56:08.124] [sharedprocess] [info] Successfully uninstalled extension: cweijan.vscode-database-client2
[2022-07-16 22:56:09.943] [sharedprocess] [info] Worker process with pid 43748 terminated normally (type: fileWatcher, window: 1).
[2022-07-16 22:56:10.940] [sharedprocess] [info] Starting worker process with pid 43973 (type: fileWatcher, window: 1).
[2022-07-16 22:57:06.317] [sharedprocess] [info] Installing extension: cweijan.vscode-mysql-client2
[2022-07-16 22:57:07.342] [sharedprocess] [info] Extracted extension to /home/alexnomad/.vscode-oss/extensions/.78cf6819-5583-4eae-85a7-28dcf3e2199e: cweijan.vscode-mysql-client2
[2022-07-16 22:57:07.353] [sharedprocess] [info] Renamed to /home/alexnomad/.vscode-oss/extensions/cweijan.vscode-mysql-client2-4.7.0
[2022-07-16 22:57:07.355] [sharedprocess] [info] Extracting completed. cweijan.vscode-mysql-client2
[2022-07-16 22:57:07.355] [sharedprocess] [info] Extension installed successfully: cweijan.vscode-mysql-client2
[2022-07-16 22:59:33.066] [sharedprocess] [info] Uninstalling extension: cweijan.vscode-mysql-client2
[2022-07-16 22:59:33.420] [sharedprocess] [info] Successfully uninstalled extension: cweijan.vscode-mysql-client2
[2022-07-16 22:59:34.577] [sharedprocess] [info] Worker process with pid 43973 terminated normally (type: fileWatcher, window: 1).
[2022-07-16 22:59:35.590] [sharedprocess] [info] Starting worker process with pid 45231 (type: fileWatcher, window: 1).
[2022-07-16 23:00:15.776] [sharedprocess] [info] Starting worker process with pid 45746 (type: fileWatcher, window: 3).
[2022-07-16 23:00:50.092] [sharedprocess] [info] Starting worker process with pid 46071 (type: fileWatcher, window: 4).
[2022-07-16 23:01:05.776] [sharedprocess] [info] Worker process with pid 45231 terminated normally (type: fileWatcher, window: 1).
[2022-07-16 23:01:29.091] [sharedprocess] [info] Worker process with pid 46071 terminated normally (type: fileWatcher, window: 4).
[2022-07-16 23:02:47.215] [sharedprocess] [info] Starting worker process with pid 46396 (type: fileWatcher, window: 5).
[2022-07-16 23:05:55.244] [sharedprocess] [info] Worker process with pid 46396 terminated normally (type: fileWatcher, window: 5).
[2022-07-16 23:05:58.221] [sharedprocess] [info] Starting worker process with pid 47940 (type: fileWatcher, window: 6).
[2022-07-16 23:06:12.211] [sharedprocess] [info] Worker process with pid 47940 terminated normally (type: fileWatcher, window: 6).
[2022-07-16 23:17:11.557] [sharedprocess] [info] Starting worker process with pid 60558 (type: fileWatcher, window: 7).
[2022-07-16 23:17:43.538] [sharedprocess] [info] Worker process with pid 60558 terminated normally (type: fileWatcher, window: 7).
[2022-07-16 23:18:05.576] [sharedprocess] [info] Starting worker process with pid 61073 (type: fileWatcher, window: 8).
[2022-07-16 23:19:00.874] [sharedprocess] [info] Worker process with pid 61073 terminated normally (type: fileWatcher, window: 8).
