{
    "workbench.colorTheme": "Nord",
    "vscode-neovim.neovimExecutablePaths.linux": "/usr/bin/nvim",
    "editor.cursorSmoothCaretAnimation": true,
    "editor.smoothScrolling": true,
    "files.autoSave": "afterDelay",
    "errorLens.enabledDiagnosticLevels": [
        "error",
        "warning",
        "info"
    ],
    "errorLens.enabled": true,
    "editor.fontFamily": "'JetBrains Mono', 'Droid Sans Mono', 'monospace', monospace",
    "editor.fontLigatures": true
}